Sender: LSF System <lsfadmin@eu-c7-049-04>
Subject: Job 122377621: <mpirun python3 manager_worker.py 101 101 100> in cluster <euler> Done

Job <mpirun python3 manager_worker.py 101 101 100> was submitted from host <eu-login-21> by user <filles> in cluster <euler> at Mon May 11 21:04:29 2020
Job was executed on host(s) <4*eu-c7-049-04>, in queue <normal.4h>, as user <filles> in cluster <euler> at Mon May 11 21:04:45 2020
</cluster/home/filles> was used as the home directory.
</cluster/home/filles/hpclab/lecture/Project6/hpc-python/ManagerWorker> was used as the working directory.
Started at Mon May 11 21:04:45 2020
Terminated at Mon May 11 21:04:51 2020
Results reported at Mon May 11 21:04:51 2020

Your job looked like:

------------------------------------------------------------
# LSBATCH: User input
mpirun python3 manager_worker.py 101 101 100
------------------------------------------------------------

Successfully completed.

Resource usage summary:

    CPU time :                                   5.10 sec.
    Max Memory :                                 186 MB
    Average Memory :                             103.00 MB
    Total Requested Memory :                     4096.00 MB
    Delta Memory :                               3910.00 MB
    Max Swap :                                   -
    Max Processes :                              7
    Max Threads :                                8
    Run time :                                   23 sec.
    Turnaround time :                            22 sec.

The output (if any) follows:

MPI initialized with     4 processes
 ending process : 2

 ending process : 3

 ending process : 1

Run took 0.240610 seconds
Done.0 rank 

