Sender: LSF System <lsfadmin@eu-g1-014-1>
Subject: Job 121887464: <mpirun ./main 256 100 0.01> in cluster <euler> Done

Job <mpirun ./main 256 100 0.01> was submitted from host <eu-login-14> by user <filles> in cluster <euler> at Sat May  9 21:48:08 2020
Job was executed on host(s) <32*eu-g1-014-1>, in queue <normal.4h>, as user <filles> in cluster <euler> at Sat May  9 21:51:05 2020
</cluster/home/filles> was used as the home directory.
</cluster/home/filles/hpclab/lecture/Project6/pde-miniapp> was used as the working directory.
Started at Sat May  9 21:51:05 2020
Terminated at Sat May  9 21:51:07 2020
Results reported at Sat May  9 21:51:07 2020

Your job looked like:

------------------------------------------------------------
# LSBATCH: User input
mpirun ./main 256 100 0.01
------------------------------------------------------------

Successfully completed.

Resource usage summary:

    CPU time :                                   20.38 sec.
    Max Memory :                                 312 MB
    Average Memory :                             -
    Total Requested Memory :                     32768.00 MB
    Delta Memory :                               32456.00 MB
    Max Swap :                                   -
    Max Processes :                              -
    Max Threads :                                -
    Run time :                                   2 sec.
    Turnaround time :                            179 sec.

The output (if any) follows:

--------------------------------------------------------------------------
WARNING: No preset parameters were found for the device that Open MPI
detected:

  Local host:            eu-g1-014-1
  Device name:           mlx5_0
  Device vendor ID:      0x02c9
  Device vendor part ID: 4123

Default device parameters will be used, which may result in lower
performance.  You can edit any of the files specified by the
btl_openib_device_param_files MCA parameter to set values for your
device.

NOTE: You can turn off this warning by setting the MCA parameter
      btl_openib_warn_no_device_params_found to 0.
--------------------------------------------------------------------------
--------------------------------------------------------------------------
WARNING: There was an error initializing an OpenFabrics device.

  Local host:   eu-g1-014-1
  Local device: mlx5_0
--------------------------------------------------------------------------
1 aaand 1
rank 0/32 : (1,1) neigh N:S -2:4 neigh E:W -2:1 local dims 64 x 32
1 aaand 2
rank 1/32 : (2,1) neigh N:S -2:5 neigh E:W 0:2 local dims 64 x 32
1 aaand 3
rank 2/32 : (3,1) neigh N:S -2:6 neigh E:W 1:3 local dims 64 x 32
1 aaand 4
rank 3/32 : (4,1) neigh N:S -2:7 neigh E:W 2:-2 local dims 64 x 32
2 aaand 1
rank 4/32 : (1,2) neigh N:S 0:8 neigh E:W -2:5 local dims 64 x 32
2 aaand 2
rank 5/32 : (2,2) neigh N:S 1:9 neigh E:W 4:6 local dims 64 x 32
2 aaand 3
rank 6/32 : (3,2) neigh N:S 2:10 neigh E:W 5:7 local dims 64 x 32
2 aaand 4
rank 7/32 : (4,2) neigh N:S 3:11 neigh E:W 6:-2 local dims 64 x 32
3 aaand 1
rank 8/32 : (1,3) neigh N:S 4:12 neigh E:W -2:9 local dims 64 x 32
3 aaand 2
rank 9/32 : (2,3) neigh N:S 5:13 neigh E:W 8:10 local dims 64 x 32
3 aaand 3
rank 10/32 : (3,3) neigh N:S 6:14 neigh E:W 9:11 local dims 64 x 32
3 aaand 4
rank 11/32 : (4,3) neigh N:S 7:15 neigh E:W 10:-2 local dims 64 x 32
4 aaand 1
rank 12/32 : (1,4) neigh N:S 8:16 neigh E:W -2:13 local dims 64 x 32
4 aaand 2
rank 13/32 : (2,4) neigh N:S 9:17 neigh E:W 12:14 local dims 64 x 32
4 aaand 3
rank 14/32 : (3,4) neigh N:S 10:18 neigh E:W 13:15 local dims 64 x 32
4 aaand 4
rank 15/32 : (4,4) neigh N:S 11:19 neigh E:W 14:-2 local dims 64 x 32
5 aaand 1
rank 16/32 : (1,5) neigh N:S 12:20 neigh E:W -2:17 local dims 64 x 32
5 aaand 2
rank 17/32 : (2,5) neigh N:S 13:21 neigh E:W 16:18 local dims 64 x 32
5 aaand 3
rank 18/32 : (3,5) neigh N:S 14:22 neigh E:W 17:19 local dims 64 x 32
5 aaand 4
rank 19/32 : (4,5) neigh N:S 15:23 neigh E:W 18:-2 local dims 64 x 32
6 aaand 1
rank 20/32 : (1,6) neigh N:S 16:24 neigh E:W -2:21 local dims 64 x 32
6 aaand 2
rank 21/32 : (2,6) neigh N:S 17:25 neigh E:W 20:22 local dims 64 x 32
6 aaand 3
rank 22/32 : (3,6) neigh N:S 18:26 neigh E:W 21:23 local dims 64 x 32
6 aaand 4
rank 23/32 : (4,6) neigh N:S 19:27 neigh E:W 22:-2 local dims 64 x 32
7 aaand 1
rank 24/32 : (1,7) neigh N:S 20:28 neigh E:W -2:25 local dims 64 x 32
7 aaand 2
rank 25/32 : (2,7) neigh N:S 21:29 neigh E:W 24:26 local dims 64 x 32
7 aaand 3
rank 26/32 : (3,7) neigh N:S 22:30 neigh E:W 25:27 local dims 64 x 32
7 aaand 4
rank 27/32 : (4,7) neigh N:S 23:31 neigh E:W 26:-2 local dims 64 x 32
8 aaand 1
rank 28/32 : (1,8) neigh N:S 24:-2 neigh E:W -2:29 local dims 64 x 32
8 aaand 2
rank 29/32 : (2,8) neigh N:S 25:-2 neigh E:W 28:30 local dims 64 x 32
8 aaand 3
rank 30/32 : (3,8) neigh N:S 26:-2 neigh E:W 29:31 local dims 64 x 32
8 aaand 4
rank 31/32 : (4,8) neigh N:S 27:-2 neigh E:W 30:-2 local dims 64 x 32
========================================================================
                      Welcome to mini-stencil!
version   :: MPI : 32 MPI ranks
mesh      :: 256 * 256 dx = 0.00392157
time      :: 100 time steps from 0 .. 0.01
iteration :: CG 200, Newton 50, tolerance 1e-06
========================================================================
--------------------------------------------------------------------------------
simulation took 0.419909 seconds
19888 conjugate gradient iterations, at rate of 47362.6 iters/second
795 newton iterations
--------------------------------------------------------------------------------
Goodbye!
[eu-g1-014-1:80624] 31 more processes have sent help message help-mpi-btl-openib.txt / no device params found
[eu-g1-014-1:80624] Set MCA parameter "orte_base_help_aggregate" to 0 to see all help / error messages
[eu-g1-014-1:80624] 31 more processes have sent help message help-mpi-btl-openib.txt / error in device init
