Sender: LSF System <lsfadmin@eu-c7-061-15>
Subject: Job 121887438: <mpirun ./main 128 100 0.01> in cluster <euler> Done

Job <mpirun ./main 128 100 0.01> was submitted from host <eu-login-14> by user <filles> in cluster <euler> at Sat May  9 21:48:01 2020
Job was executed on host(s) <5*eu-c7-061-15>, in queue <normal.4h>, as user <filles> in cluster <euler> at Sat May  9 21:48:36 2020
</cluster/home/filles> was used as the home directory.
</cluster/home/filles/hpclab/lecture/Project6/pde-miniapp> was used as the working directory.
Started at Sat May  9 21:48:36 2020
Terminated at Sat May  9 21:48:39 2020
Results reported at Sat May  9 21:48:39 2020

Your job looked like:

------------------------------------------------------------
# LSBATCH: User input
mpirun ./main 128 100 0.01
------------------------------------------------------------

Successfully completed.

Resource usage summary:

    CPU time :                                   2.91 sec.
    Max Memory :                                 76 MB
    Average Memory :                             -
    Total Requested Memory :                     5120.00 MB
    Delta Memory :                               5044.00 MB
    Max Swap :                                   -
    Max Processes :                              -
    Max Threads :                                -
    Run time :                                   8 sec.
    Turnaround time :                            38 sec.

The output (if any) follows:

1 aaand 1
rank 0/5 : (1,1) neigh N:S -2:1 neigh E:W -2:-2 local dims 128 x 25
2 aaand 1
rank 1/5 : (1,2) neigh N:S 0:2 neigh E:W -2:-2 local dims 128 x 25
3 aaand 1
rank 2/5 : (1,3) neigh N:S 1:3 neigh E:W -2:-2 local dims 128 x 25
4 aaand 1
rank 3/5 : (1,4) neigh N:S 2:4 neigh E:W -2:-2 local dims 128 x 25
5 aaand 1
rank 4/5 : (1,5) neigh N:S 3:-2 neigh E:W -2:-2 local dims 128 x 28
========================================================================
                      Welcome to mini-stencil!
version   :: MPI : 5 MPI ranks
mesh      :: 128 * 128 dx = 0.00787402
time      :: 100 time steps from 0 .. 0.01
iteration :: CG 200, Newton 50, tolerance 1e-06
========================================================================
--------------------------------------------------------------------------------
simulation took 0.300739 seconds
8323 conjugate gradient iterations, at rate of 27675.2 iters/second
868 newton iterations
--------------------------------------------------------------------------------
Goodbye!
